{
    "storage": {
        "controller": "\\App\\Controllers\\StorageController",
        "function": "storage", 
        "access": "public", 
        "sub-routes": {
            "images": {
                "function": "images",
                "permissions": "no"
            }
        }
    },
    "/": {
        "controller": "\\App\\Controllers\\PagesController",
        "function": "login",
        "access": "public-strict"
    },
    "home": {
        "controller": "\\App\\Controllers\\HomeController",
        "function": "home",
        "access": "private",
        "permissions": "no",
        "sub-routes": {
            "configuracion": {
                "function": "configuracion",
                "permissions": "admin"
            },
            "perfil": {
                "function": "perfil",
                "permissions": "no"
            },
            "crear-usuario": {
                "function": "crearUsuario",
                "permissions": "admin"
            }
        }
    },
    "agenda": {
        "controller": "\\App\\Controllers\\AgendaController",
        "function": "agenda",
        "access": "private",
        "permissions": "agenda_lectura",
        "sub-routes": {
            "configuracion": {},
            "accesos": {},
            "usuarios": {}
        }
    }
}